module a (cc,c);
vcvs #(.gain(p)) ss (.p(cc),.n(0),.ps(c),.ns(0));
endmodule // a

a #() x (.cc(2),.c(1));
//a #(.p(2)) x(3 1); 
#Time       v(1)       v(2)      
 0.         0.         0.        
 0.01       0.01       0.051415  
 0.02       0.02       0.10283   
 0.036333   0.036333   0.18681   
 1.         1.         5.1415    
